{
  "globPatterns": [
    "build/css/**.css",
    "build/**.html",
    "build/images/**.*",
    "build/js/**.js"
  ],
  "stripPrefix": "build/",
  "runtimeCaching": [{
    "urlPattern": "(.*).png$",
    "handler": "StaleWhileRevalidate"
  }]
}
